┌──────────────────────────────────────────────────────────────────────────────────────────────────────────────────────────────────────────────────────────────────────────────────────────────────────────────────────────────────────────────────────────────────────────────────────────────────────────────────────────────────────────────────────────────────────────────────────┐
│                                                                                                                                                                                      QUERY PLAN                                                                                                                                                                                      │
├──────────────────────────────────────────────────────────────────────────────────────────────────────────────────────────────────────────────────────────────────────────────────────────────────────────────────────────────────────────────────────────────────────────────────────────────────────────────────────────────────────────────────────────────────────────────────────┤
│ Sort  (cost=27234.83..27269.60 rows=13906 width=20) (actual time=19.423..19.795 rows=2010 loops=1)                                                                                                                                                                                                                                                                                   │
│   Sort Key: available_periods.start_datetime                                                                                                                                                                                                                                                                                                                                         │
│   Sort Method: quicksort  Memory: 206kB                                                                                                                                                                                                                                                                                                                                              │
│   Buffers: shared hit=101                                                                                                                                                                                                                                                                                                                                                            │
│   ->  HashAggregate  (cost=26138.80..26277.86 rows=13906 width=20) (actual time=18.379..19.088 rows=2010 loops=1)                                                                                                                                                                                                                                                                    │
│         Group Key: available_periods.bike_id, available_periods.start_datetime, available_periods.end_datetime                                                                                                                                                                                                                                                                       │
│         Buffers: shared hit=101                                                                                                                                                                                                                                                                                                                                                      │
│         ->  Append  (cost=14008.32..26034.51 rows=13906 width=20) (actual time=7.708..17.746 rows=2010 loops=1)                                                                                                                                                                                                                                                                      │
│               Buffers: shared hit=101                                                                                                                                                                                                                                                                                                                                                │
│               ->  Subquery Scan on available_periods  (cost=14008.32..14601.87 rows=13896 width=20) (actual time=7.707..13.609 rows=2000 loops=1)                                                                                                                                                                                                                                    │
│                     Filter: (available_periods.start_datetime <> available_periods.end_datetime)                                                                                                                                                                                                                                                                                     │
│                     Rows Removed by Filter: 2000                                                                                                                                                                                                                                                                                                                                     │
│                     Buffers: shared hit=45                                                                                                                                                                                                                                                                                                                                           │
│                     ->  ProjectSet  (cost=14008.32..14427.30 rows=13966 width=20) (actual time=7.705..12.960 rows=4000 loops=1)                                                                                                                                                                                                                                                      │
│                           Buffers: shared hit=45                                                                                                                                                                                                                                                                                                                                     │
│                           ->  Subquery Scan on previous_next_date  (cost=14008.32..14287.64 rows=6983 width=36) (actual time=7.701..11.104 rows=2000 loops=1)                                                                                                                                                                                                                        │
│                                 Filter: ((previous_next_date.previous_end_date <> previous_next_date.start_datetime) OR (previous_next_date.end_datetime <> previous_next_date.next_start_datetime))                                                                                                                                                                                 │
│                                 Rows Removed by Filter: 1000                                                                                                                                                                                                                                                                                                                         │
│                                 Buffers: shared hit=45                                                                                                                                                                                                                                                                                                                               │
│                                 ->  WindowAgg  (cost=14008.32..14182.89 rows=6983 width=36) (actual time=7.700..10.498 rows=3000 loops=1)                                                                                                                                                                                                                                            │
│                                       Buffers: shared hit=45                                                                                                                                                                                                                                                                                                                         │
│                                       ->  Sort  (cost=14008.32..14025.77 rows=6983 width=28) (actual time=7.695..7.971 rows=3000 loops=1)                                                                                                                                                                                                                                            │
│                                             Sort Key: rents_2_col.bike_id, rents_2_col.end_datetime                                                                                                                                                                                                                                                                                  │
│                                             Sort Method: quicksort  Memory: 331kB                                                                                                                                                                                                                                                                                                    │
│                                             Buffers: shared hit=45                                                                                                                                                                                                                                                                                                                   │
│                                             ->  WindowAgg  (cost=13422.80..13562.46 rows=6983 width=28) (actual time=4.953..7.288 rows=3000 loops=1)                                                                                                                                                                                                                                 │
│                                                   Buffers: shared hit=45                                                                                                                                                                                                                                                                                                             │
│                                                   ->  Sort  (cost=13422.80..13440.26 rows=6983 width=20) (actual time=4.947..5.169 rows=3000 loops=1)                                                                                                                                                                                                                                │
│                                                         Sort Key: rents_2_col.bike_id, rents_2_col.start_datetime                                                                                                                                                                                                                                                                    │
│                                                         Sort Method: quicksort  Memory: 331kB                                                                                                                                                                                                                                                                                        │
│                                                         Buffers: shared hit=45                                                                                                                                                                                                                                                                                                       │
│                                                         ->  Bitmap Heap Scan on rents_2_col  (cost=154.24..12976.95 rows=6983 width=20) (actual time=3.791..4.273 rows=3000 loops=1)                                                                                                                                                                                                 │
│                                                               Recheck Cond: (((start_datetime >= '2019-07-01 01:00:00'::timestamp without time zone) AND (start_datetime <= '2019-07-01 20:00:00'::timestamp without time zone)) OR ((end_datetime >= '2019-07-01 01:00:00'::timestamp without time zone) AND (end_datetime <= '2019-07-01 20:00:00'::timestamp without time zone))) │
│                                                               Heap Blocks: exact=23                                                                                                                                                                                                                                                                                                  │
│                                                               Buffers: shared hit=45                                                                                                                                                                                                                                                                                                 │
│                                                               ->  BitmapOr  (cost=154.24..154.24 rows=6989 width=0) (actual time=3.784..3.784 rows=0 loops=1)                                                                                                                                                                                                                        │
│                                                                     Buffers: shared hit=22                                                                                                                                                                                                                                                                                           │
│                                                                     ->  Bitmap Index Scan on rent2col_start_datetime_idx  (cost=0.00..75.28 rows=3485 width=0) (actual time=2.175..2.175 rows=3000 loops=1)                                                                                                                                                                          │
│                                                                           Index Cond: ((start_datetime >= '2019-07-01 01:00:00'::timestamp without time zone) AND (start_datetime <= '2019-07-01 20:00:00'::timestamp without time zone))                                                                                                                                            │
│                                                                           Buffers: shared hit=11                                                                                                                                                                                                                                                                                     │
│                                                                     ->  Bitmap Index Scan on rent2col_end_datetime_idx  (cost=0.00..75.47 rows=3504 width=0) (actual time=1.607..1.607 rows=3000 loops=1)                                                                                                                                                                            │
│                                                                           Index Cond: ((end_datetime >= '2019-07-01 01:00:00'::timestamp without time zone) AND (end_datetime <= '2019-07-01 20:00:00'::timestamp without time zone))                                                                                                                                                │
│                                                                           Buffers: shared hit=11                                                                                                                                                                                                                                                                                     │
│               ->  Subquery Scan on "*SELECT* 2"  (cost=11101.29..11224.15 rows=10 width=20) (actual time=3.866..3.888 rows=10 loops=1)                                                                                                                                                                                                                                               │
│                     Buffers: shared hit=56                                                                                                                                                                                                                                                                                                                                           │
│                     ->  Group  (cost=11101.29..11224.00 rows=10 width=20) (actual time=3.860..3.878 rows=10 loops=1)                                                                                                                                                                                                                                                                 │
│                           Group Key: bikes.id, '2019-07-01 01:00:00'::timestamp without time zone, '2019-07-01 20:00:00'::timestamp without time zone                                                                                                                                                                                                                                │
│                           Buffers: shared hit=56                                                                                                                                                                                                                                                                                                                                     │
│                           ->  Merge Anti Join  (cost=11101.29..11223.92 rows=10 width=20) (actual time=3.857..3.867 rows=10 loops=1)                                                                                                                                                                                                                                                 │
│                                 Merge Cond: (bikes.id = rents_2_col_1.bike_id)                                                                                                                                                                                                                                                                                                       │
│                                 Buffers: shared hit=56                                                                                                                                                                                                                                                                                                                               │
│                                 ->  Index Only Scan using bikes_pkey on bikes  (cost=0.28..45.42 rows=1010 width=4) (actual time=0.019..0.438 rows=1010 loops=1)                                                                                                                                                                                                                     │
│                                       Heap Fetches: 1010                                                                                                                                                                                                                                                                                                                             │
│                                       Buffers: shared hit=11                                                                                                                                                                                                                                                                                                                         │
│                                 ->  Sort  (cost=11101.02..11113.51 rows=4997 width=4) (actual time=2.704..2.951 rows=3000 loops=1)                                                                                                                                                                                                                                                   │
│                                       Sort Key: rents_2_col_1.bike_id                                                                                                                                                                                                                                                                                                                │
│                                       Sort Method: quicksort  Memory: 237kB                                                                                                                                                                                                                                                                                                          │
│                                       Buffers: shared hit=45                                                                                                                                                                                                                                                                                                                         │
│                                       ->  Bitmap Heap Scan on rents_2_col rents_2_col_1  (cost=113.35..10794.03 rows=4997 width=4) (actual time=1.425..1.991 rows=3000 loops=1)                                                                                                                                                                                                      │
│                                             Recheck Cond: (((start_datetime >= '2019-07-01 01:00:00'::timestamp without time zone) AND (start_datetime <= '2019-07-01 20:00:00'::timestamp without time zone)) OR ((end_datetime > '2019-07-01 01:00:00'::timestamp without time zone) AND (end_datetime < '2019-07-01 20:00:00'::timestamp without time zone)))                     │
│                                             Heap Blocks: exact=23                                                                                                                                                                                                                                                                                                                    │
│                                             Buffers: shared hit=45                                                                                                                                                                                                                                                                                                                   │
│                                             ->  BitmapOr  (cost=113.35..113.35 rows=4999 width=0) (actual time=1.415..1.415 rows=0 loops=1)                                                                                                                                                                                                                                          │
│                                                   Buffers: shared hit=22                                                                                                                                                                                                                                                                                                             │
│                                                   ->  Bitmap Index Scan on rent2col_start_datetime_idx  (cost=0.00..75.28 rows=3485 width=0) (actual time=0.762..0.762 rows=3000 loops=1)                                                                                                                                                                                            │
│                                                         Index Cond: ((start_datetime >= '2019-07-01 01:00:00'::timestamp without time zone) AND (start_datetime <= '2019-07-01 20:00:00'::timestamp without time zone))                                                                                                                                                              │
│                                                         Buffers: shared hit=11                                                                                                                                                                                                                                                                                                       │
│                                                   ->  Bitmap Index Scan on rent2col_end_datetime_idx  (cost=0.00..35.57 rows=1514 width=0) (actual time=0.651..0.651 rows=3000 loops=1)                                                                                                                                                                                              │
│                                                         Index Cond: ((end_datetime > '2019-07-01 01:00:00'::timestamp without time zone) AND (end_datetime < '2019-07-01 20:00:00'::timestamp without time zone))                                                                                                                                                                    │
│                                                         Buffers: shared hit=11                                                                                                                                                                                                                                                                                                       │
│ Planning Time: 1.221 ms                                                                                                                                                                                                                                                                                                                                                              │
│ Execution Time: 20.203 ms                                                                                                                                                                                                                                                                                                                                                            │
└──────────────────────────────────────────────────────────────────────────────────────────────────────────────────────────────────────────────────────────────────────────────────────────────────────────────────────────────────────────────────────────────────────────────────────────────────────────────────────────────────────────────────────────────────────────────────────┘
(72 rows)

