┌───────────────────────────────────────────────────────────────────────────────────────────────────────────────────────────────────────────────────────────────────────────────────────────────────────────────────────────────────────────────────────────────┐
│                                                                                                                          QUERY PLAN                                                                                                                           │
├───────────────────────────────────────────────────────────────────────────────────────────────────────────────────────────────────────────────────────────────────────────────────────────────────────────────────────────────────────────────────────────────┤
│ Sort  (cost=11994.74..12001.20 rows=2585 width=36) (actual time=22.637..22.783 rows=2010 loops=1)                                                                                                                                                             │
│   Sort Key: available.available_range                                                                                                                                                                                                                         │
│   Sort Method: quicksort  Memory: 206kB                                                                                                                                                                                                                       │
│   Buffers: shared hit=135                                                                                                                                                                                                                                     │
│   ->  HashAggregate  (cost=11822.37..11848.22 rows=2585 width=36) (actual time=21.636..22.029 rows=2010 loops=1)                                                                                                                                              │
│         Group Key: available.bike_id, available.available_range                                                                                                                                                                                               │
│         Buffers: shared hit=135                                                                                                                                                                                                                               │
│         ->  Append  (cost=5882.58..11809.45 rows=2585 width=36) (actual time=14.449..20.551 rows=2010 loops=1)                                                                                                                                                │
│               Buffers: shared hit=135                                                                                                                                                                                                                         │
│               ->  Subquery Scan on available  (cost=5882.58..5988.78 rows=2575 width=36) (actual time=14.447..17.882 rows=2000 loops=1)                                                                                                                       │
│                     Filter: (NOT isempty(available.available_range))                                                                                                                                                                                          │
│                     Rows Removed by Filter: 4000                                                                                                                                                                                                              │
│                     Buffers: shared hit=62                                                                                                                                                                                                                    │
│                     ->  ProjectSet  (cost=5882.58..5940.51 rows=3862 width=36) (actual time=14.442..16.955 rows=6000 loops=1)                                                                                                                                 │
│                           Buffers: shared hit=62                                                                                                                                                                                                              │
│                           ->  Sort  (cost=5882.58..5887.40 rows=1931 width=90) (actual time=14.422..14.863 rows=3000 loops=1)                                                                                                                                 │
│                                 Sort Key: rents.rent_dates, rents.bike_id                                                                                                                                                                                     │
│                                 Sort Method: quicksort  Memory: 331kB                                                                                                                                                                                         │
│                                 Buffers: shared hit=62                                                                                                                                                                                                        │
│                                 ->  WindowAgg  (cost=5704.78..5777.19 rows=1931 width=90) (actual time=4.887..8.807 rows=3000 loops=1)                                                                                                                        │
│                                       Buffers: shared hit=62                                                                                                                                                                                                  │
│                                       ->  Sort  (cost=5704.78..5709.60 rows=1931 width=26) (actual time=4.879..5.085 rows=3000 loops=1)                                                                                                                       │
│                                             Sort Key: rents.bike_id, rents.rent_dates                                                                                                                                                                         │
│                                             Sort Method: quicksort  Memory: 331kB                                                                                                                                                                             │
│                                             Buffers: shared hit=62                                                                                                                                                                                            │
│                                             ->  Bitmap Heap Scan on rents  (cost=111.39..5599.39 rows=1931 width=26) (actual time=1.533..3.012 rows=3000 loops=1)                                                                                             │
│                                                   Recheck Cond: (rent_dates <@ tstzrange(('2019-07-01 01:00:00'::timestamp without time zone)::timestamp with time zone, ('2019-07-01 20:00:00'::timestamp without time zone)::timestamp with time zone))     │
│                                                   Heap Blocks: exact=23                                                                                                                                                                                       │
│                                                   Buffers: shared hit=62                                                                                                                                                                                      │
│                                                   ->  Bitmap Index Scan on rents_rent_dates_range_uniq  (cost=0.00..110.90 rows=1931 width=0) (actual time=1.511..1.511 rows=3000 loops=1)                                                                    │
│                                                         Index Cond: (rent_dates <@ tstzrange(('2019-07-01 01:00:00'::timestamp without time zone)::timestamp with time zone, ('2019-07-01 20:00:00'::timestamp without time zone)::timestamp with time zone)) │
│                                                         Buffers: shared hit=39                                                                                                                                                                                │
│               ->  Group  (cost=5705.05..5781.89 rows=10 width=36) (actual time=2.435..2.447 rows=10 loops=1)                                                                                                                                                  │
│                     Group Key: bikes.id, tstzrange(('2019-07-01 01:00:00'::timestamp without time zone)::timestamp with time zone, ('2019-07-01 20:00:00'::timestamp without time zone)::timestamp with time zone)                                            │
│                     Buffers: shared hit=73                                                                                                                                                                                                                    │
│                     ->  Merge Anti Join  (cost=5705.05..5781.77 rows=10 width=36) (actual time=2.433..2.440 rows=10 loops=1)                                                                                                                                  │
│                           Merge Cond: (bikes.id = rents_1.bike_id)                                                                                                                                                                                            │
│                           Buffers: shared hit=73                                                                                                                                                                                                              │
│                           ->  Index Only Scan using bikes_pkey on bikes  (cost=0.28..45.42 rows=1010 width=4) (actual time=0.047..0.278 rows=1010 loops=1)                                                                                                    │
│                                 Heap Fetches: 1010                                                                                                                                                                                                            │
│                                 Buffers: shared hit=11                                                                                                                                                                                                        │
│                           ->  Sort  (cost=5704.78..5709.60 rows=1931 width=4) (actual time=1.515..1.730 rows=3000 loops=1)                                                                                                                                    │
│                                 Sort Key: rents_1.bike_id                                                                                                                                                                                                     │
│                                 Sort Method: quicksort  Memory: 237kB                                                                                                                                                                                         │
│                                 Buffers: shared hit=62                                                                                                                                                                                                        │
│                                 ->  Bitmap Heap Scan on rents rents_1  (cost=111.39..5599.39 rows=1931 width=4) (actual time=0.560..0.968 rows=3000 loops=1)                                                                                                  │
│                                       Recheck Cond: (rent_dates <@ tstzrange(('2019-07-01 01:00:00'::timestamp without time zone)::timestamp with time zone, ('2019-07-01 20:00:00'::timestamp without time zone)::timestamp with time zone))                 │
│                                       Heap Blocks: exact=23                                                                                                                                                                                                   │
│                                       Buffers: shared hit=62                                                                                                                                                                                                  │
│                                       ->  Bitmap Index Scan on rents_rent_dates_range_uniq  (cost=0.00..110.90 rows=1931 width=0) (actual time=0.544..0.544 rows=3000 loops=1)                                                                                │
│                                             Index Cond: (rent_dates <@ tstzrange(('2019-07-01 01:00:00'::timestamp without time zone)::timestamp with time zone, ('2019-07-01 20:00:00'::timestamp without time zone)::timestamp with time zone))             │
│                                             Buffers: shared hit=39                                                                                                                                                                                            │
│ Planning Time: 1.106 ms                                                                                                                                                                                                                                       │
│ Execution Time: 23.071 ms                                                                                                                                                                                                                                     │
└───────────────────────────────────────────────────────────────────────────────────────────────────────────────────────────────────────────────────────────────────────────────────────────────────────────────────────────────────────────────────────────────┘
